{
  "RHEL-8.0": {
    "x86_64": "1G-64G:160M,64G-1T:256M,1T-:512M",
    "aarch64": "2G-:512M",
    "ppc64le": {
      "fadump": "null",
      "kdump": "2G-4G:384M,4G-16G:512M,16G-64G:1G,64G-128G:2G,128G-:4G"
    },
    "s390x": "4G-64G:160M,64G-1T:256M,1T-:512M"
  },
  "RHEL-8.1": {
    "x86_64": "1G-64G:160M,64G-1T:256M,1T-:512M",
    "aarch64": "2G-:448M",
    "ppc64le": {
      "fadump": "null",
      "kdump": "2G-4G:384M,4G-16G:512M,16G-64G:1G,64G-128G:2G,128G-:4G"
    },
    "s390x": "4G-64G:160M,64G-1T:256M,1T-:512M"
  },
  "RHEL-8.2": {
    "x86_64": "1G-64G:160M,64G-1T:256M,1T-:512M",
    "aarch64": "2G-:448M",
    "ppc64le": {
      "fadump": "null",
      "kdump": "2G-4G:384M,4G-16G:512M,16G-64G:1G,64G-128G:2G,128G-:4G"
    },
    "s390x": "1G-64G:160M,64G-1T:256M,1T-:512M"
  },
  "RHEL-8.3": {
    "x86_64": "1G-4G:160M,4G-64G:192M,64G-1T:256M,1T-:512M",
    "aarch64": "2G-:448M",
    "ppc64le": {
      "fadump": "null",
      "kdump": "2G-4G:384M,4G-16G:512M,16G-64G:1G,64G-128G:2G,128G-:4G"
    },
    "s390x": "1G-4G:160M,4G-64G:192M,64G-1T:256M,1T-:512M"
  },
  "RHEL-8.4": {
    "x86_64": "1G-4G:160M,4G-64G:192M,64G-1T:256M,1T-:512M",
    "aarch64": "2G-:448M",
    "ppc64le": {
      "fadump": "4G-16G:768M,16G-64G:1G,64G-128G:2G,128G-1T:4G,1T-2T:6G,2T-4T:12G,4T-8T:20G,8T-16T:36G,16T-32T:64G,32T-64T:128G,64T-:180G",
      "kdump": "2G-4G:384M,4G-16G:512M,16G-64G:1G,64G-128G:2G,128G-:4G"
    },
    "s390x": "1G-4G:160M,4G-64G:192M,64G-1T:256M,1T-:512M"
  },
  "RHEL-8.5": {
    "x86_64": "1G-4G:160M,4G-64G:192M,64G-1T:256M,1T-:512M",
    "aarch64": "2G-:448M",
    "ppc64le": {
      "fadump": "4G-16G:768M,16G-64G:1G,64G-128G:2G,128G-1T:4G,1T-2T:6G,2T-4T:12G,4T-8T:20G,8T-16T:36G,16T-32T:64G,32T-64T:128G,64T-:180G",
      "kdump": "2G-4G:384M,4G-16G:512M,16G-64G:1G,64G-128G:2G,128G-:4G"
    },
    "s390x": "1G-4G:160M,4G-64G:192M,64G-1T:256M,1T-:512M"
  },
  "RHEL-8.6": {
    "x86_64": "1G-4G:160M,4G-64G:192M,64G-1T:256M,1T-:512M",
    "aarch64": "2G-:448M",
    "ppc64le": {
      "fadump": "4G-16G:768M,16G-64G:1G,64G-128G:2G,128G-1T:4G,1T-2T:6G,2T-4T:12G,4T-8T:20G,8T-16T:36G,16T-32T:64G,32T-64T:128G,64T-:180G",
      "kdump": "2G-4G:384M,4G-16G:512M,16G-64G:1G,64G-128G:2G,128G-:4G"
    },
    "s390x": "1G-4G:160M,4G-64G:192M,64G-1T:256M,1T-:512M"
  },
  "RHEL-8.7": {
    "x86_64": "1G-4G:160M,4G-64G:192M,64G-1T:256M,1T-:512M",
    "aarch64": "2G-:448M",
    "ppc64le": {
      "fadump": "4G-16G:768M,16G-64G:1G,64G-128G:2G,128G-1T:4G,1T-2T:6G,2T-4T:12G,4T-8T:20G,8T-16T:36G,16T-32T:64G,32T-64T:128G,64T-:180G",
      "kdump": "2G-4G:384M,4G-16G:512M,16G-64G:1G,64G-128G:2G,128G-:4G"
    },
    "s390x": "1G-4G:160M,4G-64G:192M,64G-1T:256M,1T-:512M"
  },
  "RHEL-8.8": {
    "x86_64": "1G-4G:192M,4G-64G:256M,64G-:512M",
    "aarch64": "2G-:480M",
    "ppc64le": {
      "fadump": "4G-16G:768M,16G-64G:1G,64G-128G:2G,128G-1T:4G,1T-2T:6G,2T-4T:12G,4T-8T:20G,8T-16T:36G,16T-32T:64G,32T-64T:128G,64T-:180G",
      "kdump": "2G-4G:384M,4G-16G:512M,16G-64G:1G,64G-128G:2G,128G-:4G"
    },
    "s390x": "1G-4G:192M,4G-64G:256M,64G-:512M"
  },
  "RHEL-9.0": {
    "x86_64": "1G-4G:192M,4G-64G:256M,64G-:512M",
    "aarch64": "2G-:448M",
    "ppc64le": {
      "fadump": "4G-16G:768M,16G-64G:1G,64G-128G:2G,128G-1T:4G,1T-2T:6G,2T-4T:12G,4T-8T:20G,8T-16T:36G,16T-32T:64G,32T-64T:128G,64T-:180G",
      "kdump": "2G-4G:384M,4G-16G:512M,16G-64G:1G,64G-128G:2G,128G-:4G"
    },
    "s390x": "1G-4G:192M,4G-64G:256M,64G-:512M"
  },
  "RHEL-9.1": {
    "x86_64": "1G-4G:192M,4G-64G:256M,64G-:512M",
    "aarch64": "1G-4G:256M,4G-64G:320M,64G-:576M",
    "ppc64le": {
      "fadump": "4G-16G:768M,16G-64G:1G,64G-128G:2G,128G-1T:4G,1T-2T:6G,2T-4T:12G,4T-8T:20G,8T-16T:36G,16T-32T:64G,32T-64T:128G,64T-:180G",
      "kdump": "2G-4G:384M,4G-16G:512M,16G-64G:1G,64G-128G:2G,128G-:4G"
    },
    "s390x": "1G-4G:192M,4G-64G:256M,64G-:512M"
  },
  "RHEL-9.2": {
    "x86_64": "1G-4G:192M,4G-64G:256M,64G-:512M",
    "aarch64": "1G-4G:256M,4G-64G:320M,64G-:576M",
    "ppc64le": {
      "fadump": "4G-16G:768M,16G-64G:1G,64G-128G:2G,128G-1T:4G,1T-2T:6G,2T-4T:12G,4T-8T:20G,8T-16T:36G,16T-32T:64G,32T-64T:128G,64T-:180G",
      "kdump": "2G-4G:384M,4G-16G:512M,16G-64G:1G,64G-128G:2G,128G-:4G"
    },
    "s390x": "1G-4G:192M,4G-64G:256M,64G-:512M"
  }
}
